"Source:","C:\Users\lukea\OneDrive\Documents\KiCad2\OSH_Sensors\OSH_Sensors.kicad_sch"
"Date:","2022/03/04 14:54:01"
"Tool:","Eeschema (6.0.2)"
"Generator:","C:\Program Files\KiCad\6.0\bin\scripting\plugins/bom_csv_grouped_by_value_with_fp.py"
"Component Count:","11"
"Ref","Qnty","Value","Cmp name","Footprint","Description","Vendor"
"C1, C2, C3, ","3","10uF","C","Capacitor_SMD:CP_Elec_5x5.7","Unpolarized capacitor",""
"R1, R2, R5, R6, ","4","10K","R","Resistor_SMD:R_0201_0603Metric","Resistor",""
"R3, R4, ","2","50K","R","Resistor_SMD:R_0201_0603Metric","Resistor",""
"U1, ","1","VL6180","VL6180_1","","",""
"U2, ","1","IRM-H6XXT/TR2","IRM-H6XXT{slash}TR2_1","","",""
