Source:,D:\Documents\UCT\power.kicad_sch,,,,,
,,,,,,
Date:,3/10/2022 16:55,,,,,
,,,,,,
Tool:,Eeschema (6.0.2),,,,,
,,,,,,
Generator:,C:\Program Files\KiCad\6.0\bin\scripting\plugins/bom_csv_grouped_by_value_with_fp.py,,,,,
,,,,,,
Component Count:,51,,,,,
,,,,,,
Ref,Qnty,Value,Cmp name,Footprint,Description,Vendor
,,,,,,
"10uF1, ",1,C11,C_Polarized_Small_US,,"Polarized capacitor, small US symbol",
,,,,,,
"100uF1, ",1,C10,C_Polarized_Small_US,,"Polarized capacitor, small US symbol",
,,,,,,
"C1, C2, C3, C4, C9, ",5,105,C,,Unpolarized capacitor,
,,,,,,
"C5, C6, C12, ",3,10uF,C_Polarized,,Polarized capacitor,
,,,,,,
"C7, C11, ",2,104,C_Polarized,,Polarized capacitor,
,,,,,,
"C8, ",1,100nF,C_Polarized,,Polarized capacitor,
,,,,,,
"C10, ",1,10nF,C_Polarized,,Polarized capacitor,
,,,,,,
"C13, ",1,100uF,C_Polarized,,Polarized capacitor,
,,,,,,
"D1, D2, ",2,LED,LED,,Light emitting diode,
,,,,,,
"H1, ",1,USB_Host,USB_A,,USB Type A connector,
,,,,,,
"L1, ",1,4.7uH/3A,L,,Inductor,
,,,,,,
"Li-battery1, Li-battery2, ",2,Battery,Battery,,Multiple-cell battery,
,,,,,,
"M1, M2, M3, M4, M5, M6, ",6,MNMOS,MNMOS,,N-channel MOSFET symbol for simulation only,
,,,,,,
"Q1, Q2, ",2,QM6006D,QM6006D,Package_TO_SOT_SMD:TO-252-2,"35A Id, 60V Vds, N-Channel Power MOSFET, 18mOhm Ron, 19.3nC Qg (typ), TO252",
,,,,,,
"R1, R2, ",2,100R,R_Small_US,,"Resistor, small US symbol",
,,,,,,
"R3, R4, ",2,36R,R_Small_US,,"Resistor, small US symbol",
,,,,,,
"R5, ",1,330R,R_Small_US,,"Resistor, small US symbol",
,,,,,,
"R6, R7, ",2,4.7K,R_Small_US,,"Resistor, small US symbol",
,,,,,,
"R8, ",1,100k,R_Small_US,,"Resistor, small US symbol",
,,,,,,
"R9, ",1,5k1,R_Small_US,,"Resistor, small US symbol",
,,,,,,
"R10, ",1,100K,R_Small_US,,"Resistor, small US symbol",
,,,,,,
"R11, ",1,0.1R,R_Small_US,,"Resistor, small US symbol",
,,,,,,
"R12, ",1,15K,R_Small_US,,"Resistor, small US symbol",
,,,,,,
"R13, ",1,68K,R_Small_US,,"Resistor, small US symbol",
,,,,,,
"R14, R15, ",2,10K,R_Small_US,,"Resistor, small US symbol",
,,,,,,
"SW1, ",1,SW_DPDT_x2,SW_DPDT_x2,,"Switch, dual pole double throw, separate symbols",
,,,,,,
"U1, ",1,LM7805_TO220,LM7805_TO220,Package_TO_SOT_THT:TO-220-3_Vertical,"Positive 1A 35V Linear Regulator, Fixed Output 5V, TO-220",
,,,,,,
"U2, U3, U4, ",3,AP9101CK6,AP9101CK6,Package_TO_SOT_SMD:SOT-23-6,"Li+ Battery Protection IC for Single Cell Pack, SOT-23-6",
,,,,,,
"U5, ",1,AP6502,AP6502,,340kHz 18V 2A Synchronous DC/DC Buck Converter,
,,,,,,
"U6, ",1,INA219BxD,INA219BxD,Package_SO:SOIC-8_3.9x4.9mm_P1.27mm,"Zero-Drift, HighAccuracy, Bidirectional Current/Power Monitor (0-26V) With I2C Interface, SOIC-8",
