(kicad_sch (version 20211123) (generator eeschema)

  (uuid b1ddb058-f7b2-429c-9489-f4e2242ad7e5)

  (paper "A4")

  (title_block
    (title "Digital Proximity Sensor")
    (date "2022-03-11")
    (rev "v1.11")
    (comment 1 "2.8v regulator replaced with zener diode.")
    (comment 2 "10K replaced with 250 ohm")
    (comment 3 "Now has two level shifting mosfets to interface with mircocontroller")
    (comment 4 "Author: Luke Kratz")
    (comment 5 "Replaced the Vl6180 with a VL53l1 sensor")
  )

  (lib_symbols
    (symbol "Device:C" (pin_numbers hide) (pin_names (offset 0.254)) (in_bom yes) (on_board yes)
      (property "Reference" "C" (id 0) (at 0.635 2.54 0)
        (effects (font (size 1.27 1.27)) (justify left))
      )
      (property "Value" "C" (id 1) (at 0.635 -2.54 0)
        (effects (font (size 1.27 1.27)) (justify left))
      )
      (property "Footprint" "" (id 2) (at 0.9652 -3.81 0)
        (effects (font (size 1.27 1.27)) hide)
      )
      (property "Datasheet" "~" (id 3) (at 0 0 0)
        (effects (font (size 1.27 1.27)) hide)
      )
      (property "ki_keywords" "cap capacitor" (id 4) (at 0 0 0)
        (effects (font (size 1.27 1.27)) hide)
      )
      (property "ki_description" "Unpolarized capacitor" (id 5) (at 0 0 0)
        (effects (font (size 1.27 1.27)) hide)
      )
      (property "ki_fp_filters" "C_*" (id 6) (at 0 0 0)
        (effects (font (size 1.27 1.27)) hide)
      )
      (symbol "C_0_1"
        (polyline
          (pts
            (xy -2.032 -0.762)
            (xy 2.032 -0.762)
          )
          (stroke (width 0.508) (type default) (color 0 0 0 0))
          (fill (type none))
        )
        (polyline
          (pts
            (xy -2.032 0.762)
            (xy 2.032 0.762)
          )
          (stroke (width 0.508) (type default) (color 0 0 0 0))
          (fill (type none))
        )
      )
      (symbol "C_1_1"
        (pin passive line (at 0 3.81 270) (length 2.794)
          (name "~" (effects (font (size 1.27 1.27))))
          (number "1" (effects (font (size 1.27 1.27))))
        )
        (pin passive line (at 0 -3.81 90) (length 2.794)
          (name "~" (effects (font (size 1.27 1.27))))
          (number "2" (effects (font (size 1.27 1.27))))
        )
      )
    )
    (symbol "Device:LED" (pin_numbers hide) (pin_names (offset 1.016) hide) (in_bom yes) (on_board yes)
      (property "Reference" "D" (id 0) (at 0 2.54 0)
        (effects (font (size 1.27 1.27)))
      )
      (property "Value" "LED" (id 1) (at 0 -2.54 0)
        (effects (font (size 1.27 1.27)))
      )
      (property "Footprint" "" (id 2) (at 0 0 0)
        (effects (font (size 1.27 1.27)) hide)
      )
      (property "Datasheet" "~" (id 3) (at 0 0 0)
        (effects (font (size 1.27 1.27)) hide)
      )
      (property "ki_keywords" "LED diode" (id 4) (at 0 0 0)
        (effects (font (size 1.27 1.27)) hide)
      )
      (property "ki_description" "Light emitting diode" (id 5) (at 0 0 0)
        (effects (font (size 1.27 1.27)) hide)
      )
      (property "ki_fp_filters" "LED* LED_SMD:* LED_THT:*" (id 6) (at 0 0 0)
        (effects (font (size 1.27 1.27)) hide)
      )
      (symbol "LED_0_1"
        (polyline
          (pts
            (xy -1.27 -1.27)
            (xy -1.27 1.27)
          )
          (stroke (width 0.254) (type default) (color 0 0 0 0))
          (fill (type none))
        )
        (polyline
          (pts
            (xy -1.27 0)
            (xy 1.27 0)
          )
          (stroke (width 0) (type default) (color 0 0 0 0))
          (fill (type none))
        )
        (polyline
          (pts
            (xy 1.27 -1.27)
            (xy 1.27 1.27)
            (xy -1.27 0)
            (xy 1.27 -1.27)
          )
          (stroke (width 0.254) (type default) (color 0 0 0 0))
          (fill (type none))
        )
        (polyline
          (pts
            (xy -3.048 -0.762)
            (xy -4.572 -2.286)
            (xy -3.81 -2.286)
            (xy -4.572 -2.286)
            (xy -4.572 -1.524)
          )
          (stroke (width 0) (type default) (color 0 0 0 0))
          (fill (type none))
        )
        (polyline
          (pts
            (xy -1.778 -0.762)
            (xy -3.302 -2.286)
            (xy -2.54 -2.286)
            (xy -3.302 -2.286)
            (xy -3.302 -1.524)
          )
          (stroke (width 0) (type default) (color 0 0 0 0))
          (fill (type none))
        )
      )
      (symbol "LED_1_1"
        (pin passive line (at -3.81 0 0) (length 2.54)
          (name "K" (effects (font (size 1.27 1.27))))
          (number "1" (effects (font (size 1.27 1.27))))
        )
        (pin passive line (at 3.81 0 180) (length 2.54)
          (name "A" (effects (font (size 1.27 1.27))))
          (number "2" (effects (font (size 1.27 1.27))))
        )
      )
    )
    (symbol "Device:R" (pin_numbers hide) (pin_names (offset 0)) (in_bom yes) (on_board yes)
      (property "Reference" "R" (id 0) (at 2.032 0 90)
        (effects (font (size 1.27 1.27)))
      )
      (property "Value" "R" (id 1) (at 0 0 90)
        (effects (font (size 1.27 1.27)))
      )
      (property "Footprint" "" (id 2) (at -1.778 0 90)
        (effects (font (size 1.27 1.27)) hide)
      )
      (property "Datasheet" "~" (id 3) (at 0 0 0)
        (effects (font (size 1.27 1.27)) hide)
      )
      (property "ki_keywords" "R res resistor" (id 4) (at 0 0 0)
        (effects (font (size 1.27 1.27)) hide)
      )
      (property "ki_description" "Resistor" (id 5) (at 0 0 0)
        (effects (font (size 1.27 1.27)) hide)
      )
      (property "ki_fp_filters" "R_*" (id 6) (at 0 0 0)
        (effects (font (size 1.27 1.27)) hide)
      )
      (symbol "R_0_1"
        (rectangle (start -1.016 -2.54) (end 1.016 2.54)
          (stroke (width 0.254) (type default) (color 0 0 0 0))
          (fill (type none))
        )
      )
      (symbol "R_1_1"
        (pin passive line (at 0 3.81 270) (length 1.27)
          (name "~" (effects (font (size 1.27 1.27))))
          (number "1" (effects (font (size 1.27 1.27))))
        )
        (pin passive line (at 0 -3.81 90) (length 1.27)
          (name "~" (effects (font (size 1.27 1.27))))
          (number "2" (effects (font (size 1.27 1.27))))
        )
      )
    )
    (symbol "Diode:DZ2S033X0L" (pin_numbers hide) (pin_names (offset 1.016) hide) (in_bom yes) (on_board yes)
      (property "Reference" "D" (id 0) (at 0 2.54 0)
        (effects (font (size 1.27 1.27)))
      )
      (property "Value" "DZ2S033X0L" (id 1) (at 0 -2.54 0)
        (effects (font (size 1.27 1.27)))
      )
      (property "Footprint" "Diode_SMD:D_SOD-523" (id 2) (at 0 -4.445 0)
        (effects (font (size 1.27 1.27)) hide)
      )
      (property "Datasheet" "https://industrial.panasonic.com/content/data/SC/ds/ds4/DZ2S03300L_E.pdf" (id 3) (at 0 0 0)
        (effects (font (size 1.27 1.27)) hide)
      )
      (property "ki_keywords" "zener diode" (id 4) (at 0 0 0)
        (effects (font (size 1.27 1.27)) hide)
      )
      (property "ki_description" "150mW Silicon Planar Zener Diode, 3.3V, SOD-523" (id 5) (at 0 0 0)
        (effects (font (size 1.27 1.27)) hide)
      )
      (property "ki_fp_filters" "D?SOD?523*" (id 6) (at 0 0 0)
        (effects (font (size 1.27 1.27)) hide)
      )
      (symbol "DZ2S033X0L_0_1"
        (polyline
          (pts
            (xy 1.27 0)
            (xy -1.27 0)
          )
          (stroke (width 0) (type default) (color 0 0 0 0))
          (fill (type none))
        )
        (polyline
          (pts
            (xy -1.27 -1.27)
            (xy -1.27 1.27)
            (xy -0.762 1.27)
          )
          (stroke (width 0.254) (type default) (color 0 0 0 0))
          (fill (type none))
        )
        (polyline
          (pts
            (xy 1.27 -1.27)
            (xy 1.27 1.27)
            (xy -1.27 0)
            (xy 1.27 -1.27)
          )
          (stroke (width 0.254) (type default) (color 0 0 0 0))
          (fill (type none))
        )
      )
      (symbol "DZ2S033X0L_1_1"
        (pin passive line (at -3.81 0 0) (length 2.54)
          (name "K" (effects (font (size 1.27 1.27))))
          (number "1" (effects (font (size 1.27 1.27))))
        )
        (pin passive line (at 3.81 0 180) (length 2.54)
          (name "A" (effects (font (size 1.27 1.27))))
          (number "2" (effects (font (size 1.27 1.27))))
        )
      )
    )
    (symbol "Sensor_Distance:VL53L1CXV0FY1" (in_bom yes) (on_board yes)
      (property "Reference" "U" (id 0) (at -6.35 13.97 0)
        (effects (font (size 1.27 1.27)))
      )
      (property "Value" "VL53L1CXV0FY1" (id 1) (at 12.065 13.97 0)
        (effects (font (size 1.27 1.27)))
      )
      (property "Footprint" "Sensor_Distance:ST_VL53L1x" (id 2) (at 17.145 -13.97 0)
        (effects (font (size 1.27 1.27)) hide)
      )
      (property "Datasheet" "https://www.st.com/resource/en/datasheet/vl53l1x.pdf" (id 3) (at 2.54 0 0)
        (effects (font (size 1.27 1.27)) hide)
      )
      (property "ki_keywords" "VL53L1x ToF" (id 4) (at 0 0 0)
        (effects (font (size 1.27 1.27)) hide)
      )
      (property "ki_description" "4m distance ranging ToF sensor" (id 5) (at 0 0 0)
        (effects (font (size 1.27 1.27)) hide)
      )
      (property "ki_fp_filters" "ST*VL53L1x*" (id 6) (at 0 0 0)
        (effects (font (size 1.27 1.27)) hide)
      )
      (symbol "VL53L1CXV0FY1_0_1"
        (rectangle (start -7.62 12.7) (end 7.62 -12.7)
          (stroke (width 0.254) (type default) (color 0 0 0 0))
          (fill (type background))
        )
      )
      (symbol "VL53L1CXV0FY1_1_1"
        (pin power_in line (at 2.54 15.24 270) (length 2.54)
          (name "AVDDVCSEL" (effects (font (size 1.27 1.27))))
          (number "1" (effects (font (size 1.27 1.27))))
        )
        (pin input line (at -10.16 -2.54 0) (length 2.54)
          (name "SCL" (effects (font (size 1.27 1.27))))
          (number "10" (effects (font (size 1.27 1.27))))
        )
        (pin power_in line (at 0 15.24 270) (length 2.54)
          (name "AVDD" (effects (font (size 1.27 1.27))))
          (number "11" (effects (font (size 1.27 1.27))))
        )
        (pin passive line (at 0 -15.24 90) (length 2.54) hide
          (name "GND" (effects (font (size 1.27 1.27))))
          (number "12" (effects (font (size 1.27 1.27))))
        )
        (pin power_in line (at 2.54 -15.24 90) (length 2.54)
          (name "AVSSVCSEL" (effects (font (size 1.27 1.27))))
          (number "2" (effects (font (size 1.27 1.27))))
        )
        (pin power_in line (at 0 -15.24 90) (length 2.54)
          (name "GND" (effects (font (size 1.27 1.27))))
          (number "3" (effects (font (size 1.27 1.27))))
        )
        (pin passive line (at 0 -15.24 90) (length 2.54) hide
          (name "GND" (effects (font (size 1.27 1.27))))
          (number "4" (effects (font (size 1.27 1.27))))
        )
        (pin input line (at -10.16 -7.62 0) (length 2.54)
          (name "XSHUT" (effects (font (size 1.27 1.27))))
          (number "5" (effects (font (size 1.27 1.27))))
        )
        (pin passive line (at 0 -15.24 90) (length 2.54) hide
          (name "GND" (effects (font (size 1.27 1.27))))
          (number "6" (effects (font (size 1.27 1.27))))
        )
        (pin open_collector line (at -10.16 5.08 0) (length 2.54)
          (name "GPIO1" (effects (font (size 1.27 1.27))))
          (number "7" (effects (font (size 1.27 1.27))))
        )
        (pin no_connect line (at -7.62 7.62 0) (length 2.54) hide
          (name "DNC" (effects (font (size 1.27 1.27))))
          (number "8" (effects (font (size 1.27 1.27))))
        )
        (pin bidirectional line (at -10.16 0 0) (length 2.54)
          (name "SDA" (effects (font (size 1.27 1.27))))
          (number "9" (effects (font (size 1.27 1.27))))
        )
      )
    )
    (symbol "Transistor_FET:BSS138" (pin_names hide) (in_bom yes) (on_board yes)
      (property "Reference" "Q" (id 0) (at 5.08 1.905 0)
        (effects (font (size 1.27 1.27)) (justify left))
      )
      (property "Value" "BSS138" (id 1) (at 5.08 0 0)
        (effects (font (size 1.27 1.27)) (justify left))
      )
      (property "Footprint" "Package_TO_SOT_SMD:SOT-23" (id 2) (at 5.08 -1.905 0)
        (effects (font (size 1.27 1.27) italic) (justify left) hide)
      )
      (property "Datasheet" "https://www.onsemi.com/pub/Collateral/BSS138-D.PDF" (id 3) (at 0 0 0)
        (effects (font (size 1.27 1.27)) (justify left) hide)
      )
      (property "ki_keywords" "N-Channel MOSFET" (id 4) (at 0 0 0)
        (effects (font (size 1.27 1.27)) hide)
      )
      (property "ki_description" "50V Vds, 0.22A Id, N-Channel MOSFET, SOT-23" (id 5) (at 0 0 0)
        (effects (font (size 1.27 1.27)) hide)
      )
      (property "ki_fp_filters" "SOT?23*" (id 6) (at 0 0 0)
        (effects (font (size 1.27 1.27)) hide)
      )
      (symbol "BSS138_0_1"
        (polyline
          (pts
            (xy 0.254 0)
            (xy -2.54 0)
          )
          (stroke (width 0) (type default) (color 0 0 0 0))
          (fill (type none))
        )
        (polyline
          (pts
            (xy 0.254 1.905)
            (xy 0.254 -1.905)
          )
          (stroke (width 0.254) (type default) (color 0 0 0 0))
          (fill (type none))
        )
        (polyline
          (pts
            (xy 0.762 -1.27)
            (xy 0.762 -2.286)
          )
          (stroke (width 0.254) (type default) (color 0 0 0 0))
          (fill (type none))
        )
        (polyline
          (pts
            (xy 0.762 0.508)
            (xy 0.762 -0.508)
          )
          (stroke (width 0.254) (type default) (color 0 0 0 0))
          (fill (type none))
        )
        (polyline
          (pts
            (xy 0.762 2.286)
            (xy 0.762 1.27)
          )
          (stroke (width 0.254) (type default) (color 0 0 0 0))
          (fill (type none))
        )
        (polyline
          (pts
            (xy 2.54 2.54)
            (xy 2.54 1.778)
          )
          (stroke (width 0) (type default) (color 0 0 0 0))
          (fill (type none))
        )
        (polyline
          (pts
            (xy 2.54 -2.54)
            (xy 2.54 0)
            (xy 0.762 0)
          )
          (stroke (width 0) (type default) (color 0 0 0 0))
          (fill (type none))
        )
        (polyline
          (pts
            (xy 0.762 -1.778)
            (xy 3.302 -1.778)
            (xy 3.302 1.778)
            (xy 0.762 1.778)
          )
          (stroke (width 0) (type default) (color 0 0 0 0))
          (fill (type none))
        )
        (polyline
          (pts
            (xy 1.016 0)
            (xy 2.032 0.381)
            (xy 2.032 -0.381)
            (xy 1.016 0)
          )
          (stroke (width 0) (type default) (color 0 0 0 0))
          (fill (type outline))
        )
        (polyline
          (pts
            (xy 2.794 0.508)
            (xy 2.921 0.381)
            (xy 3.683 0.381)
            (xy 3.81 0.254)
          )
          (stroke (width 0) (type default) (color 0 0 0 0))
          (fill (type none))
        )
        (polyline
          (pts
            (xy 3.302 0.381)
            (xy 2.921 -0.254)
            (xy 3.683 -0.254)
            (xy 3.302 0.381)
          )
          (stroke (width 0) (type default) (color 0 0 0 0))
          (fill (type none))
        )
        (circle (center 1.651 0) (radius 2.794)
          (stroke (width 0.254) (type default) (color 0 0 0 0))
          (fill (type none))
        )
        (circle (center 2.54 -1.778) (radius 0.254)
          (stroke (width 0) (type default) (color 0 0 0 0))
          (fill (type outline))
        )
        (circle (center 2.54 1.778) (radius 0.254)
          (stroke (width 0) (type default) (color 0 0 0 0))
          (fill (type outline))
        )
      )
      (symbol "BSS138_1_1"
        (pin input line (at -5.08 0 0) (length 2.54)
          (name "G" (effects (font (size 1.27 1.27))))
          (number "1" (effects (font (size 1.27 1.27))))
        )
        (pin passive line (at 2.54 -5.08 90) (length 2.54)
          (name "S" (effects (font (size 1.27 1.27))))
          (number "2" (effects (font (size 1.27 1.27))))
        )
        (pin passive line (at 2.54 5.08 270) (length 2.54)
          (name "D" (effects (font (size 1.27 1.27))))
          (number "3" (effects (font (size 1.27 1.27))))
        )
      )
    )
    (symbol "power:+5V" (power) (pin_names (offset 0)) (in_bom yes) (on_board yes)
      (property "Reference" "#PWR" (id 0) (at 0 -3.81 0)
        (effects (font (size 1.27 1.27)) hide)
      )
      (property "Value" "+5V" (id 1) (at 0 3.556 0)
        (effects (font (size 1.27 1.27)))
      )
      (property "Footprint" "" (id 2) (at 0 0 0)
        (effects (font (size 1.27 1.27)) hide)
      )
      (property "Datasheet" "" (id 3) (at 0 0 0)
        (effects (font (size 1.27 1.27)) hide)
      )
      (property "ki_keywords" "power-flag" (id 4) (at 0 0 0)
        (effects (font (size 1.27 1.27)) hide)
      )
      (property "ki_description" "Power symbol creates a global label with name \"+5V\"" (id 5) (at 0 0 0)
        (effects (font (size 1.27 1.27)) hide)
      )
      (symbol "+5V_0_1"
        (polyline
          (pts
            (xy -0.762 1.27)
            (xy 0 2.54)
          )
          (stroke (width 0) (type default) (color 0 0 0 0))
          (fill (type none))
        )
        (polyline
          (pts
            (xy 0 0)
            (xy 0 2.54)
          )
          (stroke (width 0) (type default) (color 0 0 0 0))
          (fill (type none))
        )
        (polyline
          (pts
            (xy 0 2.54)
            (xy 0.762 1.27)
          )
          (stroke (width 0) (type default) (color 0 0 0 0))
          (fill (type none))
        )
      )
      (symbol "+5V_1_1"
        (pin power_in line (at 0 0 90) (length 0) hide
          (name "+5V" (effects (font (size 1.27 1.27))))
          (number "1" (effects (font (size 1.27 1.27))))
        )
      )
    )
    (symbol "power:GND" (power) (pin_names (offset 0)) (in_bom yes) (on_board yes)
      (property "Reference" "#PWR" (id 0) (at 0 -6.35 0)
        (effects (font (size 1.27 1.27)) hide)
      )
      (property "Value" "GND" (id 1) (at 0 -3.81 0)
        (effects (font (size 1.27 1.27)))
      )
      (property "Footprint" "" (id 2) (at 0 0 0)
        (effects (font (size 1.27 1.27)) hide)
      )
      (property "Datasheet" "" (id 3) (at 0 0 0)
        (effects (font (size 1.27 1.27)) hide)
      )
      (property "ki_keywords" "power-flag" (id 4) (at 0 0 0)
        (effects (font (size 1.27 1.27)) hide)
      )
      (property "ki_description" "Power symbol creates a global label with name \"GND\" , ground" (id 5) (at 0 0 0)
        (effects (font (size 1.27 1.27)) hide)
      )
      (symbol "GND_0_1"
        (polyline
          (pts
            (xy 0 0)
            (xy 0 -1.27)
            (xy 1.27 -1.27)
            (xy 0 -2.54)
            (xy -1.27 -1.27)
            (xy 0 -1.27)
          )
          (stroke (width 0) (type default) (color 0 0 0 0))
          (fill (type none))
        )
      )
      (symbol "GND_1_1"
        (pin power_in line (at 0 0 270) (length 0) hide
          (name "GND" (effects (font (size 1.27 1.27))))
          (number "1" (effects (font (size 1.27 1.27))))
        )
      )
    )
    (symbol "pspice:R" (pin_numbers hide) (pin_names (offset 0)) (in_bom yes) (on_board yes)
      (property "Reference" "R" (id 0) (at 2.032 0 90)
        (effects (font (size 1.27 1.27)))
      )
      (property "Value" "R" (id 1) (at 0 0 90)
        (effects (font (size 1.27 1.27)))
      )
      (property "Footprint" "" (id 2) (at 0 0 0)
        (effects (font (size 1.27 1.27)) hide)
      )
      (property "Datasheet" "~" (id 3) (at 0 0 0)
        (effects (font (size 1.27 1.27)) hide)
      )
      (property "ki_keywords" "resistor simulation" (id 4) (at 0 0 0)
        (effects (font (size 1.27 1.27)) hide)
      )
      (property "ki_description" "Resistor symbol for simulation only" (id 5) (at 0 0 0)
        (effects (font (size 1.27 1.27)) hide)
      )
      (symbol "R_0_1"
        (rectangle (start -1.016 3.81) (end 1.016 -3.81)
          (stroke (width 0) (type default) (color 0 0 0 0))
          (fill (type none))
        )
      )
      (symbol "R_1_1"
        (pin passive line (at 0 6.35 270) (length 2.54)
          (name "~" (effects (font (size 1.27 1.27))))
          (number "1" (effects (font (size 1.27 1.27))))
        )
        (pin passive line (at 0 -6.35 90) (length 2.54)
          (name "~" (effects (font (size 1.27 1.27))))
          (number "2" (effects (font (size 1.27 1.27))))
        )
      )
    )
  )


  (junction (at 165.735 69.85) (diameter 0) (color 0 0 0 0)
    (uuid 02887c16-3ca0-4f16-b894-09a7e4d92ec6)
  )
  (junction (at 189.865 109.22) (diameter 0) (color 0 0 0 0)
    (uuid 28443bfb-aa4a-4be7-9b16-33fad50df218)
  )
  (junction (at 88.9 63.5) (diameter 0) (color 0 0 0 0)
    (uuid 38a501e2-0ee8-439d-bd02-e9e90e7503e9)
  )
  (junction (at 114.3 63.5) (diameter 0) (color 0 0 0 0)
    (uuid 70e4263f-d95a-4431-b3f3-cfc800c82056)
  )
  (junction (at 71.755 161.29) (diameter 0) (color 0 0 0 0)
    (uuid 79770cd5-32d7-429a-8248-0d9e6212231a)
  )
  (junction (at 88.9 92.71) (diameter 0) (color 0 0 0 0)
    (uuid 97fe2a5c-4eee-4c7a-9c43-47749b396494)
  )
  (junction (at 202.565 109.22) (diameter 0) (color 0 0 0 0)
    (uuid cd068f1e-a9ed-4e98-9110-b1be06fcfd59)
  )
  (junction (at 165.735 109.22) (diameter 0) (color 0 0 0 0)
    (uuid d9a0a0f3-7dc0-4b92-af64-231d8e785bc2)
  )
  (junction (at 189.865 69.85) (diameter 0) (color 0 0 0 0)
    (uuid e0a18e86-f2ef-413e-86b9-bd2715bab3c7)
  )
  (junction (at 78.74 63.5) (diameter 0) (color 0 0 0 0)
    (uuid eae14f5f-515c-4a6f-ad0e-e8ef233d14bf)
  )
  (junction (at 78.74 104.14) (diameter 0) (color 0 0 0 0)
    (uuid fb30f9bb-6a0b-4d8a-82b0-266eab794bc6)
  )

  (wire (pts (xy 114.3 63.5) (xy 88.9 63.5))
    (stroke (width 0) (type default) (color 0 0 0 0))
    (uuid 00e38d63-5436-49db-81f5-697421f168fc)
  )
  (wire (pts (xy 202.565 92.71) (xy 202.565 109.22))
    (stroke (width 0) (type default) (color 0 0 0 0))
    (uuid 02d6f086-8d68-4569-9594-bd858efe6457)
  )
  (wire (pts (xy 146.05 82.55) (xy 146.05 97.79))
    (stroke (width 0) (type default) (color 0 0 0 0))
    (uuid 0501e919-7ff6-4c09-b76f-902fb7a0b8d7)
  )
  (wire (pts (xy 124.46 82.55) (xy 146.05 82.55))
    (stroke (width 0) (type default) (color 0 0 0 0))
    (uuid 0ae82096-0994-4fb0-9a2a-d4ac4804abac)
  )
  (wire (pts (xy 114.3 90.17) (xy 153.035 90.17))
    (stroke (width 0) (type default) (color 0 0 0 0))
    (uuid 0e8a0a80-1375-43b6-a489-7d108b4235c1)
  )
  (wire (pts (xy 124.46 71.12) (xy 124.46 82.55))
    (stroke (width 0) (type default) (color 0 0 0 0))
    (uuid 0fdc6f30-77bc-4e9b-8665-c8aa9acf5bf9)
  )
  (wire (pts (xy 189.865 109.22) (xy 202.565 109.22))
    (stroke (width 0) (type default) (color 0 0 0 0))
    (uuid 1a26e1a6-e836-411c-94f1-3f43a61b92ec)
  )
  (wire (pts (xy 114.3 90.17) (xy 114.3 104.14))
    (stroke (width 0) (type default) (color 0 0 0 0))
    (uuid 1fa508ef-df83-4c99-846b-9acf535b3ad9)
  )
  (wire (pts (xy 238.125 110.49) (xy 238.125 114.3))
    (stroke (width 0) (type default) (color 0 0 0 0))
    (uuid 221bef83-3ea7-4d3f-adeb-53a8a07c6273)
  )
  (wire (pts (xy 189.865 69.85) (xy 189.865 61.595))
    (stroke (width 0) (type default) (color 0 0 0 0))
    (uuid 221ce306-3b9f-4ed3-8692-561a2aa5b35d)
  )
  (wire (pts (xy 146.05 97.79) (xy 153.035 97.79))
    (stroke (width 0) (type default) (color 0 0 0 0))
    (uuid 2645f3f6-7a05-43ba-96f2-06a4db2118f8)
  )
  (wire (pts (xy 163.195 109.22) (xy 165.735 109.22))
    (stroke (width 0) (type default) (color 0 0 0 0))
    (uuid 34f0a189-60a5-4ee3-84c4-03829f6e40a8)
  )
  (wire (pts (xy 97.79 55.88) (xy 97.79 85.09))
    (stroke (width 0) (type default) (color 0 0 0 0))
    (uuid 399fc36a-ed5d-44b5-82f7-c6f83d9acc14)
  )
  (wire (pts (xy 163.195 69.85) (xy 165.735 69.85))
    (stroke (width 0) (type default) (color 0 0 0 0))
    (uuid 3d4c74a1-5093-4aec-80d8-f9a9c7f42b92)
  )
  (polyline (pts (xy 217.17 119.38) (xy 57.15 119.38))
    (stroke (width 0) (type default) (color 0 0 0 0))
    (uuid 3f43d730-2a73-49fe-9672-32428e7f5b49)
  )

  (wire (pts (xy 114.3 63.5) (xy 124.46 63.5))
    (stroke (width 0) (type default) (color 0 0 0 0))
    (uuid 4107d40a-e5df-4255-aacc-13f9928e090c)
  )
  (wire (pts (xy 189.865 69.85) (xy 202.565 69.85))
    (stroke (width 0) (type default) (color 0 0 0 0))
    (uuid 45f09864-a4af-4f99-8ccc-4ca011f5a6ee)
  )
  (wire (pts (xy 238.125 121.92) (xy 238.125 125.73))
    (stroke (width 0) (type default) (color 0 0 0 0))
    (uuid 4ba06b66-7669-4c70-b585-f5d4c9c33527)
  )
  (wire (pts (xy 110.49 104.14) (xy 114.3 104.14))
    (stroke (width 0) (type default) (color 0 0 0 0))
    (uuid 4f411f68-04bd-4175-a406-bcaa4cf6601e)
  )
  (wire (pts (xy 165.735 109.22) (xy 189.865 109.22))
    (stroke (width 0) (type default) (color 0 0 0 0))
    (uuid 531cbdfd-4ce5-4e3d-ae86-d4a2212837a5)
  )
  (wire (pts (xy 165.735 69.85) (xy 189.865 69.85))
    (stroke (width 0) (type default) (color 0 0 0 0))
    (uuid 578d689c-4ceb-40a2-9d0e-e7da8c8aff53)
  )
  (wire (pts (xy 163.195 74.93) (xy 163.195 69.85))
    (stroke (width 0) (type default) (color 0 0 0 0))
    (uuid 5e938ada-370b-485e-83e7-06280705e516)
  )
  (wire (pts (xy 165.735 74.93) (xy 165.735 69.85))
    (stroke (width 0) (type default) (color 0 0 0 0))
    (uuid 61d97734-9382-4d8d-a4e5-5328149a399c)
  )
  (wire (pts (xy 69.85 92.71) (xy 88.9 92.71))
    (stroke (width 0) (type default) (color 0 0 0 0))
    (uuid 6bd115d6-07e0-45db-8f2e-3cbb0429104f)
  )
  (wire (pts (xy 78.74 63.5) (xy 88.9 63.5))
    (stroke (width 0) (type default) (color 0 0 0 0))
    (uuid 6e435cd4-da2b-4602-a0aa-5dd988834dff)
  )
  (wire (pts (xy 92.71 92.71) (xy 88.9 92.71))
    (stroke (width 0) (type default) (color 0 0 0 0))
    (uuid 6f675e5f-8fe6-4148-baf1-da97afc770f8)
  )
  (wire (pts (xy 189.865 92.71) (xy 189.865 109.22))
    (stroke (width 0) (type default) (color 0 0 0 0))
    (uuid 74a8372b-d649-4b37-90d3-898b2ddc5586)
  )
  (wire (pts (xy 100.33 104.14) (xy 78.74 104.14))
    (stroke (width 0) (type default) (color 0 0 0 0))
    (uuid 8fc062a7-114d-48eb-a8f8-71128838f380)
  )
  (polyline (pts (xy 252.095 157.48) (xy 226.695 157.48))
    (stroke (width 0) (type default) (color 0 0 0 0))
    (uuid 9031bb33-c6aa-4758-bf5c-3274ed3ebab7)
  )

  (wire (pts (xy 78.74 71.12) (xy 78.74 104.14))
    (stroke (width 0) (type default) (color 0 0 0 0))
    (uuid 917920ab-0c6e-4927-974d-ef342cdd4f63)
  )
  (polyline (pts (xy 57.15 119.38) (xy 57.15 41.91))
    (stroke (width 0) (type default) (color 0 0 0 0))
    (uuid 9186dae5-6dc3-4744-9f90-e697559c6ac8)
  )
  (polyline (pts (xy 173.355 129.54) (xy 173.355 186.69))
    (stroke (width 0) (type default) (color 0 0 0 0))
    (uuid 98b00c9d-9188-4bce-aa70-92d12dd9cf82)
  )

  (wire (pts (xy 71.755 161.29) (xy 71.755 162.56))
    (stroke (width 0) (type default) (color 0 0 0 0))
    (uuid 99332785-d9f1-4363-9377-26ddc18e6d2c)
  )
  (polyline (pts (xy 173.355 186.69) (xy 56.515 186.69))
    (stroke (width 0) (type default) (color 0 0 0 0))
    (uuid 997c2f12-73ba-4c01-9ee0-42e37cbab790)
  )
  (polyline (pts (xy 226.695 97.79) (xy 252.095 97.79))
    (stroke (width 0) (type default) (color 0 0 0 0))
    (uuid 9aedbb9e-8340-4899-b813-05b23382a36b)
  )
  (polyline (pts (xy 217.17 41.91) (xy 217.17 119.38))
    (stroke (width 0) (type default) (color 0 0 0 0))
    (uuid a24ce0e2-fdd3-4e6a-b754-5dee9713dd27)
  )

  (wire (pts (xy 165.735 105.41) (xy 165.735 109.22))
    (stroke (width 0) (type default) (color 0 0 0 0))
    (uuid af812166-a81d-46ec-87a9-b5397c683f3b)
  )
  (polyline (pts (xy 56.515 186.69) (xy 56.515 129.54))
    (stroke (width 0) (type default) (color 0 0 0 0))
    (uuid afd38b10-2eca-4abe-aed1-a96fb07ffdbe)
  )

  (wire (pts (xy 238.125 133.35) (xy 238.125 137.16))
    (stroke (width 0) (type default) (color 0 0 0 0))
    (uuid b52d6ff3-fef1-496e-8dd5-ebb89b6bce6a)
  )
  (wire (pts (xy 189.865 69.85) (xy 189.865 85.09))
    (stroke (width 0) (type default) (color 0 0 0 0))
    (uuid b77e81c4-7373-42a8-905c-84a597e8e21e)
  )
  (wire (pts (xy 73.66 63.5) (xy 78.74 63.5))
    (stroke (width 0) (type default) (color 0 0 0 0))
    (uuid b9bb0e73-161a-4d06-b6eb-a9f66d8a95f5)
  )
  (wire (pts (xy 163.195 105.41) (xy 163.195 109.22))
    (stroke (width 0) (type default) (color 0 0 0 0))
    (uuid bee01326-56af-46bf-90ed-77523b9a546d)
  )
  (wire (pts (xy 73.66 55.88) (xy 73.66 63.5))
    (stroke (width 0) (type default) (color 0 0 0 0))
    (uuid c04386e0-b49e-4fff-b380-675af13a62cb)
  )
  (polyline (pts (xy 56.515 129.54) (xy 173.355 129.54))
    (stroke (width 0) (type default) (color 0 0 0 0))
    (uuid c8fd9dd3-06ad-4146-9239-0065013959ef)
  )

  (wire (pts (xy 69.85 104.14) (xy 78.74 104.14))
    (stroke (width 0) (type default) (color 0 0 0 0))
    (uuid ce72ea62-9343-4a4f-81bf-8ac601f5d005)
  )
  (wire (pts (xy 114.3 85.09) (xy 114.3 71.12))
    (stroke (width 0) (type default) (color 0 0 0 0))
    (uuid cf568172-a5e2-4764-9df5-ea69845781d7)
  )
  (wire (pts (xy 102.87 92.71) (xy 153.035 92.71))
    (stroke (width 0) (type default) (color 0 0 0 0))
    (uuid d438f417-5e92-420b-807a-f31889ff36fe)
  )
  (wire (pts (xy 114.3 85.09) (xy 153.035 85.09))
    (stroke (width 0) (type default) (color 0 0 0 0))
    (uuid d77a92d2-18a2-458c-9215-845c12953861)
  )
  (wire (pts (xy 71.755 160.02) (xy 71.755 161.29))
    (stroke (width 0) (type default) (color 0 0 0 0))
    (uuid e17e6c0e-7e5b-43f0-ad48-0a2760b45b04)
  )
  (wire (pts (xy 202.565 69.85) (xy 202.565 85.09))
    (stroke (width 0) (type default) (color 0 0 0 0))
    (uuid e34fa1d4-776f-4c86-b372-f76a8d533d84)
  )
  (wire (pts (xy 71.755 161.29) (xy 86.995 161.29))
    (stroke (width 0) (type default) (color 0 0 0 0))
    (uuid e4e20505-1208-4100-a4aa-676f50844c06)
  )
  (wire (pts (xy 88.9 92.71) (xy 88.9 71.12))
    (stroke (width 0) (type default) (color 0 0 0 0))
    (uuid e7bb7815-0d52-4bb8-b29a-8cf960bd2905)
  )
  (polyline (pts (xy 57.15 41.91) (xy 217.17 41.91))
    (stroke (width 0) (type default) (color 0 0 0 0))
    (uuid f1a9fb80-4cc4-410f-9616-e19c969dcab5)
  )

  (wire (pts (xy 202.565 109.22) (xy 202.565 112.395))
    (stroke (width 0) (type default) (color 0 0 0 0))
    (uuid f410f762-ee4f-43fc-a62f-f23c80673865)
  )
  (polyline (pts (xy 226.695 157.48) (xy 226.695 97.79))
    (stroke (width 0) (type default) (color 0 0 0 0))
    (uuid fa918b6d-f6cf-4471-be3b-4ff713f55a2e)
  )

  (wire (pts (xy 105.41 55.88) (xy 105.41 96.52))
    (stroke (width 0) (type default) (color 0 0 0 0))
    (uuid fbe8ebfc-2a8e-4eb8-85c5-38ddeaa5dd00)
  )
  (polyline (pts (xy 252.095 97.79) (xy 252.095 157.48))
    (stroke (width 0) (type default) (color 0 0 0 0))
    (uuid fea7c5d1-76d6-41a0-b5e3-29889dbb8ce0)
  )

  (label "+2V8" (at 73.66 55.88 90)
    (effects (font (size 1.27 1.27)) (justify left bottom))
    (uuid 1fbb0219-551e-409b-a61b-76e8cebdfb9d)
  )
  (label "+2V8" (at 86.995 161.29 0)
    (effects (font (size 1.27 1.27)) (justify left bottom))
    (uuid 43707e99-bdd7-4b02-9974-540ed6c2b0aa)
  )
  (label "+2V8" (at 189.865 61.595 90)
    (effects (font (size 1.27 1.27)) (justify left bottom))
    (uuid 54212c01-b363-47b8-a145-45c40df316f4)
  )
  (label "+2V8" (at 97.79 55.88 90)
    (effects (font (size 1.27 1.27)) (justify left bottom))
    (uuid 7bfba61b-6752-4a45-9ee6-5984dcb15041)
  )
  (label "+2V8" (at 105.41 55.88 90)
    (effects (font (size 1.27 1.27)) (justify left bottom))
    (uuid 99dfa524-0366-4808-b4e8-328fc38e8656)
  )

  (global_label "SCL" (shape input) (at 69.85 92.71 180) (fields_autoplaced)
    (effects (font (size 1.27 1.27)) (justify right))
    (uuid 16121028-bdf5-49c0-aae7-e28fe5bfa771)
    (property "Intersheet References" "${INTERSHEET_REFS}" (id 0) (at 0 0 0)
      (effects (font (size 1.27 1.27)) hide)
    )
  )
  (global_label "SDA" (shape input) (at 69.85 104.14 180) (fields_autoplaced)
    (effects (font (size 1.27 1.27)) (justify right))
    (uuid 4db55cb8-197b-4402-871f-ce582b65664b)
    (property "Intersheet References" "${INTERSHEET_REFS}" (id 0) (at 0 0 0)
      (effects (font (size 1.27 1.27)) hide)
    )
  )

  (symbol (lib_id "Device:R") (at 78.74 67.31 0) (unit 1)
    (in_bom yes) (on_board yes)
    (uuid 00000000-0000-0000-0000-0000622a4c5d)
    (property "Reference" "R1" (id 0) (at 80.518 66.1416 0)
      (effects (font (size 1.27 1.27)) (justify left))
    )
    (property "Value" "10K" (id 1) (at 80.518 68.453 0)
      (effects (font (size 1.27 1.27)) (justify left))
    )
    (property "Footprint" "Resistor_SMD:R_0603_1608Metric" (id 2) (at 76.962 67.31 90)
      (effects (font (size 1.27 1.27)) hide)
    )
    (property "Datasheet" "https://datasheet.lcsc.com/lcsc/1811081617_YAGEO-RC0603JR-0710KL_C99198.pdf" (id 3) (at 78.74 67.31 0)
      (effects (font (size 1.27 1.27)) hide)
    )
    (property "Price" "0,06" (id 4) (at 78.74 67.31 0)
      (effects (font (size 1.27 1.27)) hide)
    )
    (pin "1" (uuid 7720b53e-da37-4d29-8b25-595961ed780f))
    (pin "2" (uuid 7ad9ba2c-8aa0-44e4-9616-9dc8a70d097d))
  )

  (symbol (lib_id "Device:R") (at 88.9 67.31 0) (unit 1)
    (in_bom yes) (on_board yes)
    (uuid 00000000-0000-0000-0000-0000622a4fb6)
    (property "Reference" "R2" (id 0) (at 90.678 66.1416 0)
      (effects (font (size 1.27 1.27)) (justify left))
    )
    (property "Value" "10K" (id 1) (at 90.678 68.453 0)
      (effects (font (size 1.27 1.27)) (justify left))
    )
    (property "Footprint" "Resistor_SMD:R_0603_1608Metric" (id 2) (at 87.122 67.31 90)
      (effects (font (size 1.27 1.27)) hide)
    )
    (property "Datasheet" "https://datasheet.lcsc.com/lcsc/1811081617_YAGEO-RC0603JR-0710KL_C99198.pdf" (id 3) (at 88.9 67.31 0)
      (effects (font (size 1.27 1.27)) hide)
    )
    (property "Price" "0,06" (id 4) (at 88.9 67.31 0)
      (effects (font (size 1.27 1.27)) hide)
    )
    (pin "1" (uuid fefd1081-543f-417c-a572-161aa99ab3b2))
    (pin "2" (uuid f5bb5187-3318-4d46-8623-181db05b6fc2))
  )

  (symbol (lib_id "Device:R") (at 114.3 67.31 0) (unit 1)
    (in_bom yes) (on_board yes)
    (uuid 00000000-0000-0000-0000-0000622a52ae)
    (property "Reference" "R3" (id 0) (at 116.078 66.1416 0)
      (effects (font (size 1.27 1.27)) (justify left))
    )
    (property "Value" "47K" (id 1) (at 116.078 68.453 0)
      (effects (font (size 1.27 1.27)) (justify left))
    )
    (property "Footprint" "Resistor_SMD:R_0402_1005Metric" (id 2) (at 112.522 67.31 90)
      (effects (font (size 1.27 1.27)) hide)
    )
    (property "Datasheet" "https://datasheet.lcsc.com/lcsc/1811101820_YAGEO-AC0402FR-0747KL_C144757.pdf" (id 3) (at 114.3 67.31 0)
      (effects (font (size 1.27 1.27)) hide)
    )
    (property "Price" "0,02" (id 4) (at 114.3 67.31 0)
      (effects (font (size 1.27 1.27)) hide)
    )
    (pin "1" (uuid f8e483bd-f10d-47e0-b284-edf09bd0b651))
    (pin "2" (uuid f089ece1-f518-4b50-8278-6c565ee3030e))
  )

  (symbol (lib_id "Device:R") (at 124.46 67.31 0) (unit 1)
    (in_bom yes) (on_board yes)
    (uuid 00000000-0000-0000-0000-0000622a5498)
    (property "Reference" "R4" (id 0) (at 126.238 66.1416 0)
      (effects (font (size 1.27 1.27)) (justify left))
    )
    (property "Value" "47K" (id 1) (at 126.238 68.453 0)
      (effects (font (size 1.27 1.27)) (justify left))
    )
    (property "Footprint" "Resistor_SMD:R_0402_1005Metric" (id 2) (at 122.682 67.31 90)
      (effects (font (size 1.27 1.27)) hide)
    )
    (property "Datasheet" "https://datasheet.lcsc.com/lcsc/1811101820_YAGEO-AC0402FR-0747KL_C144757.pdf" (id 3) (at 124.46 67.31 0)
      (effects (font (size 1.27 1.27)) hide)
    )
    (property "Price" "0,02" (id 4) (at 124.46 67.31 0)
      (effects (font (size 1.27 1.27)) hide)
    )
    (pin "1" (uuid 986a5180-1dbc-419e-a328-5470fe737af8))
    (pin "2" (uuid b4bc5ffb-6954-49e2-948b-55a7af8fe9f7))
  )

  (symbol (lib_id "Device:C") (at 189.865 88.9 180) (unit 1)
    (in_bom yes) (on_board yes)
    (uuid 00000000-0000-0000-0000-0000622a55bc)
    (property "Reference" "C1" (id 0) (at 196.2658 88.9 90))
    (property "Value" "10uF" (id 1) (at 193.9544 88.9 90))
    (property "Footprint" "Capacitor_SMD:C_0603_1608Metric" (id 2) (at 188.8998 85.09 0)
      (effects (font (size 1.27 1.27)) hide)
    )
    (property "Datasheet" "https://datasheet.lcsc.com/lcsc/1811021421_Samsung-Electro-Mechanics-CL10A106MP8NNNC_C85713.pdf" (id 3) (at 189.865 88.9 0)
      (effects (font (size 1.27 1.27)) hide)
    )
    (property "Price" "0.13" (id 4) (at 189.865 88.9 0)
      (effects (font (size 1.27 1.27)) hide)
    )
    (pin "1" (uuid acbc2e49-e0c2-4241-8b94-c64de2a5119c))
    (pin "2" (uuid 9d4d5e4f-d492-4c2c-a5bb-8838b54f44d0))
  )

  (symbol (lib_id "Device:C") (at 202.565 88.9 180) (unit 1)
    (in_bom yes) (on_board yes)
    (uuid 00000000-0000-0000-0000-0000622a63f7)
    (property "Reference" "C2" (id 0) (at 208.9658 88.9 90))
    (property "Value" "10uF" (id 1) (at 206.6544 88.9 90))
    (property "Footprint" "Capacitor_SMD:C_0201_0603Metric" (id 2) (at 201.5998 85.09 0)
      (effects (font (size 1.27 1.27)) hide)
    )
    (property "Datasheet" "https://datasheet.lcsc.com/lcsc/1811021421_Samsung-Electro-Mechanics-CL10A106MP8NNNC_C85713.pdf" (id 3) (at 202.565 88.9 0)
      (effects (font (size 1.27 1.27)) hide)
    )
    (property "Price" "0,13" (id 4) (at 202.565 88.9 0)
      (effects (font (size 1.27 1.27)) hide)
    )
    (pin "1" (uuid 9710ebd0-202e-4eac-ace2-27be439e9c38))
    (pin "2" (uuid 667352fa-7c17-44af-bd9f-c78eb6538d6b))
  )

  (symbol (lib_id "power:GND") (at 202.565 112.395 0) (unit 1)
    (in_bom yes) (on_board yes)
    (uuid 00000000-0000-0000-0000-0000622a7b2b)
    (property "Reference" "#PWR03" (id 0) (at 202.565 118.745 0)
      (effects (font (size 1.27 1.27)) hide)
    )
    (property "Value" "GND" (id 1) (at 202.692 116.7892 0))
    (property "Footprint" "" (id 2) (at 202.565 112.395 0)
      (effects (font (size 1.27 1.27)) hide)
    )
    (property "Datasheet" "" (id 3) (at 202.565 112.395 0)
      (effects (font (size 1.27 1.27)) hide)
    )
    (pin "1" (uuid 9e70e958-7937-427c-8718-ac822fec42a0))
  )

  (symbol (lib_id "Transistor_FET:BSS138") (at 97.79 90.17 270) (unit 1)
    (in_bom yes) (on_board yes)
    (uuid 00000000-0000-0000-0000-0000622b2c9c)
    (property "Reference" "Q1" (id 0) (at 98.9584 95.3516 0)
      (effects (font (size 1.27 1.27)) (justify left))
    )
    (property "Value" "BSS138" (id 1) (at 96.647 95.3516 0)
      (effects (font (size 1.27 1.27)) (justify left))
    )
    (property "Footprint" "Package_TO_SOT_SMD:SOT-23" (id 2) (at 95.885 95.25 0)
      (effects (font (size 1.27 1.27) italic) (justify left) hide)
    )
    (property "Datasheet" "https://www.fairchildsemi.com/datasheets/BS/BSS138.pdf" (id 3) (at 97.79 90.17 0)
      (effects (font (size 1.27 1.27)) (justify left) hide)
    )
    (property "Price" "0,47" (id 4) (at 97.79 90.17 0)
      (effects (font (size 1.27 1.27)) hide)
    )
    (pin "1" (uuid afb35c6e-7b10-421a-9700-1fbc0b385595))
    (pin "2" (uuid 04465b04-8dfa-41d1-84b6-5f8a9c3ee1ec))
    (pin "3" (uuid efcf5705-20c4-4988-b8bb-d82df9aa1455))
  )

  (symbol (lib_id "Transistor_FET:BSS138") (at 105.41 101.6 270) (unit 1)
    (in_bom yes) (on_board yes)
    (uuid 00000000-0000-0000-0000-0000622b4461)
    (property "Reference" "Q2" (id 0) (at 105.41 107.9246 90))
    (property "Value" "BSS138" (id 1) (at 105.41 110.236 90))
    (property "Footprint" "Package_TO_SOT_SMD:SOT-23" (id 2) (at 103.505 106.68 0)
      (effects (font (size 1.27 1.27) italic) (justify left) hide)
    )
    (property "Datasheet" "https://www.fairchildsemi.com/datasheets/BS/BSS138.pdf" (id 3) (at 105.41 101.6 0)
      (effects (font (size 1.27 1.27)) (justify left) hide)
    )
    (property "Price" "0,47" (id 4) (at 105.41 101.6 0)
      (effects (font (size 1.27 1.27)) hide)
    )
    (pin "1" (uuid a72fb738-ec88-4aed-b111-372aafe0e85f))
    (pin "2" (uuid 57da3164-a61b-4b91-9c01-9d7647e70c6e))
    (pin "3" (uuid 8fd3f482-7261-476b-a0c6-64f20dfa8606))
  )

  (symbol (lib_id "Device:LED") (at 238.125 129.54 90) (unit 1)
    (in_bom yes) (on_board yes)
    (uuid 00000000-0000-0000-0000-0000622d3bb5)
    (property "Reference" "D1" (id 0) (at 241.0968 128.5494 90)
      (effects (font (size 1.27 1.27)) (justify right))
    )
    (property "Value" "LED" (id 1) (at 241.0968 130.8608 90)
      (effects (font (size 1.27 1.27)) (justify right))
    )
    (property "Footprint" "LED_SMD:LED_0603_1608Metric" (id 2) (at 238.125 129.54 0)
      (effects (font (size 1.27 1.27)) hide)
    )
    (property "Datasheet" "https://datasheet.lcsc.com/lcsc/2008201032_Foshan-NationStar-Optoelectronics-NCD0603R1_C84263.pdf" (id 3) (at 238.125 129.54 0)
      (effects (font (size 1.27 1.27)) hide)
    )
    (property "Price" "0,38" (id 4) (at 238.125 129.54 0)
      (effects (font (size 1.27 1.27)) hide)
    )
    (pin "1" (uuid 409f630b-961b-44cb-8479-55fe6fd1a982))
    (pin "2" (uuid 9e50a60c-dd95-40a6-aa75-36999f236f67))
  )

  (symbol (lib_id "Device:R") (at 238.125 118.11 0) (unit 1)
    (in_bom yes) (on_board yes)
    (uuid 00000000-0000-0000-0000-0000622d4cf7)
    (property "Reference" "R7" (id 0) (at 239.903 116.9416 0)
      (effects (font (size 1.27 1.27)) (justify left))
    )
    (property "Value" "250R" (id 1) (at 239.903 119.253 0)
      (effects (font (size 1.27 1.27)) (justify left))
    )
    (property "Footprint" "Resistor_SMD:R_0603_1608Metric" (id 2) (at 236.347 118.11 90)
      (effects (font (size 1.27 1.27)) hide)
    )
    (property "Datasheet" "https://datasheet.lcsc.com/lcsc/1811081617_YAGEO-RC0603JR-0710KL_C99198.pdf" (id 3) (at 238.125 118.11 0)
      (effects (font (size 1.27 1.27)) hide)
    )
    (property "Price" "0,06" (id 4) (at 238.125 118.11 0)
      (effects (font (size 1.27 1.27)) hide)
    )
    (pin "1" (uuid 7ff8b9dd-8759-4e18-8638-70d30fbef9a7))
    (pin "2" (uuid 558233e5-bd56-4d5a-b288-80283beeb5e8))
  )

  (symbol (lib_id "power:+5V") (at 238.125 110.49 0) (unit 1)
    (in_bom yes) (on_board yes)
    (uuid 00000000-0000-0000-0000-0000622d4f17)
    (property "Reference" "#PWR015" (id 0) (at 238.125 114.3 0)
      (effects (font (size 1.27 1.27)) hide)
    )
    (property "Value" "+5V" (id 1) (at 238.506 106.0958 0))
    (property "Footprint" "" (id 2) (at 238.125 110.49 0)
      (effects (font (size 1.27 1.27)) hide)
    )
    (property "Datasheet" "" (id 3) (at 238.125 110.49 0)
      (effects (font (size 1.27 1.27)) hide)
    )
    (pin "1" (uuid 578f8a99-324b-4dfe-8922-0398c60bea50))
  )

  (symbol (lib_id "power:GND") (at 238.125 137.16 0) (unit 1)
    (in_bom yes) (on_board yes)
    (uuid 00000000-0000-0000-0000-0000622d55c4)
    (property "Reference" "#PWR016" (id 0) (at 238.125 143.51 0)
      (effects (font (size 1.27 1.27)) hide)
    )
    (property "Value" "GND" (id 1) (at 238.252 141.5542 0))
    (property "Footprint" "" (id 2) (at 238.125 137.16 0)
      (effects (font (size 1.27 1.27)) hide)
    )
    (property "Datasheet" "" (id 3) (at 238.125 137.16 0)
      (effects (font (size 1.27 1.27)) hide)
    )
    (pin "1" (uuid f40bab7f-a74b-4856-b50f-e29dda7487fb))
  )

  (symbol (lib_id "power:+5V") (at 71.755 147.32 0) (unit 1)
    (in_bom yes) (on_board yes)
    (uuid 00000000-0000-0000-0000-0000622d8045)
    (property "Reference" "#PWR07" (id 0) (at 71.755 151.13 0)
      (effects (font (size 1.27 1.27)) hide)
    )
    (property "Value" "+5V" (id 1) (at 72.136 142.9258 0))
    (property "Footprint" "" (id 2) (at 71.755 147.32 0)
      (effects (font (size 1.27 1.27)) hide)
    )
    (property "Datasheet" "" (id 3) (at 71.755 147.32 0)
      (effects (font (size 1.27 1.27)) hide)
    )
    (pin "1" (uuid 22ce0376-479e-4075-875a-1a02a1b95657))
  )

  (symbol (lib_id "power:GND") (at 71.755 170.18 0) (unit 1)
    (in_bom yes) (on_board yes)
    (uuid 00000000-0000-0000-0000-0000622d856e)
    (property "Reference" "#PWR08" (id 0) (at 71.755 176.53 0)
      (effects (font (size 1.27 1.27)) hide)
    )
    (property "Value" "GND" (id 1) (at 71.882 174.5742 0))
    (property "Footprint" "" (id 2) (at 71.755 170.18 0)
      (effects (font (size 1.27 1.27)) hide)
    )
    (property "Datasheet" "" (id 3) (at 71.755 170.18 0)
      (effects (font (size 1.27 1.27)) hide)
    )
    (pin "1" (uuid f5200c5a-442f-45f4-bb5b-1966308abd0f))
  )

  (symbol (lib_id "pspice:R") (at 71.755 153.67 0) (unit 1)
    (in_bom yes) (on_board yes)
    (uuid 00000000-0000-0000-0000-00006231d0d0)
    (property "Reference" "R9" (id 0) (at 73.4822 152.5016 0)
      (effects (font (size 1.27 1.27)) (justify left))
    )
    (property "Value" "47k" (id 1) (at 73.4822 154.813 0)
      (effects (font (size 1.27 1.27)) (justify left))
    )
    (property "Footprint" "" (id 2) (at 71.755 153.67 0)
      (effects (font (size 1.27 1.27)) hide)
    )
    (property "Datasheet" "~" (id 3) (at 71.755 153.67 0)
      (effects (font (size 1.27 1.27)) hide)
    )
    (pin "1" (uuid e683a616-1ad8-4d9d-85e4-9cb8b40c98c2))
    (pin "2" (uuid 8c9a7cdc-af35-4efb-aafe-5b909e04d4ae))
  )

  (symbol (lib_id "Diode:DZ2S033X0L") (at 71.755 166.37 270) (unit 1)
    (in_bom yes) (on_board yes)
    (uuid 00000000-0000-0000-0000-00006231db42)
    (property "Reference" "D3" (id 0) (at 73.7616 165.2016 90)
      (effects (font (size 1.27 1.27)) (justify left))
    )
    (property "Value" "DZ2S033X0L" (id 1) (at 73.7616 167.513 90)
      (effects (font (size 1.27 1.27)) (justify left))
    )
    (property "Footprint" "Diode_SMD:D_SOD-523" (id 2) (at 67.31 166.37 0)
      (effects (font (size 1.27 1.27)) hide)
    )
    (property "Datasheet" "https://industrial.panasonic.com/content/data/SC/ds/ds4/DZ2S03300L_E.pdf" (id 3) (at 71.755 166.37 0)
      (effects (font (size 1.27 1.27)) hide)
    )
    (pin "1" (uuid dfcedacd-5896-48db-be3e-a09e0db3303e))
    (pin "2" (uuid 70205544-ac78-4a89-9ae2-9801ca2bd6c9))
  )

  (symbol (lib_id "Sensor_Distance:VL53L1CXV0FY1") (at 163.195 90.17 0) (unit 1)
    (in_bom yes) (on_board yes) (fields_autoplaced)
    (uuid 5faea8c8-f579-4b5c-8473-e8a12dbdea93)
    (property "Reference" "U1" (id 0) (at 172.085 88.8999 0)
      (effects (font (size 1.27 1.27)) (justify left))
    )
    (property "Value" "VL53L1CXV0FY1" (id 1) (at 172.085 91.4399 0)
      (effects (font (size 1.27 1.27)) (justify left))
    )
    (property "Footprint" "Sensor_Distance:ST_VL53L1x" (id 2) (at 180.34 104.14 0)
      (effects (font (size 1.27 1.27)) hide)
    )
    (property "Datasheet" "https://www.st.com/resource/en/datasheet/vl53l1x.pdf" (id 3) (at 165.735 90.17 0)
      (effects (font (size 1.27 1.27)) hide)
    )
    (pin "1" (uuid 78fc21b1-9664-425b-b80b-851fbab00e89))
    (pin "10" (uuid 62fc3494-2f2e-460b-9a2b-935bc324d97c))
    (pin "11" (uuid ac12122b-1d13-4255-8ad4-d3c23f563c9c))
    (pin "12" (uuid dbf04936-476f-44ba-9b80-abfbe229630f))
    (pin "2" (uuid 974ed2f8-0c8f-4711-b9d3-e8bda781e193))
    (pin "3" (uuid b70bc417-8f4a-4318-aaf9-2feb1973115a))
    (pin "4" (uuid 2e003359-0ee7-4de3-82b0-5facb2e5679b))
    (pin "5" (uuid 41f487d1-79cc-4eeb-82a3-8fe6f254c52d))
    (pin "6" (uuid 37808561-7aed-4d5a-be1d-95c99ace906e))
    (pin "7" (uuid 561e0661-3908-461d-959e-0c350a22667d))
    (pin "8" (uuid 0a3ace94-a416-41dc-aef9-16870b0dba13))
    (pin "9" (uuid 55a8b234-a3b6-469d-a0f7-120a1cd8f2ec))
  )
)
